Introduction to netkit • netkit
…
#> 
#> $all_results
#> # A tibble: 50 × 6
#>      rep removed removed_frac lcc_size efficiency n_components
#>    <int>   <int>        <dbl>    <dbl>      <dbl>        <dbl>
#>  1     1       1       0.0101       54    0.107             17
#>  2     1       2       0.0202       20    0.0587            23
#>  3     1       4       0.0404       18    0.0411            37
#>  4     1       6       0.0606        8    0.0140            58
#>  5     1       8       0.0808        7    0.0130            58
#>  6     1      10       0.101         6    0.0103            62
#>  7     1      12       0.121         4    0.00705           67
#>  8     1      14       0.141         4    0.00492           71
#>  9     1      16       0.162         3    0.00387           72
#> 10     1      18       0.182         3    0.00256           74
#> # ℹ 40 more rows
#> 
#> $summary
#> # A tibble: 50 × 6
#>      rep removed removed_frac lcc_size efficiency n_components
#>    <int>   <int>        <dbl>    <dbl>      <dbl>        <dbl>
#>  1     1       1       0.0101       54    0.107             17
#>  2     1       2       0.0202       20    0.0587            23
#>  3     1       4       0.0404       18    0.0411            37
#>  4     1       6       0.0606        8    0.0140            58
#>  5     1       8       0.0808        7    0.0130            58
#>  6     1      10       0.101         6    0.0103            62
#>  7     1      12       0.121         4    0.00705           67
#>  8     1      14       0.141         4    0.00492           71
#>  9     1      16       0.162         3    0.00387           72
#> 10     1      18       0.182         3    0.00256           74
#> # ℹ 40 more rows
…
#> $plot
#> 
#> $method
#> [1] "Hub nodes identified by method: zscore with Degree metric threshold = 2.5 and Betweenness metric threshold = 1"
#> 
#> $result
#> # A tibble: 100 × 6
#>    node  degree betweenness degree_metric betweenness_metric is_hub
#>    <chr>  <dbl>       <dbl>         <dbl>              <dbl> <lgl> 
#>  1 1          7      0.662          2.42               4.84  FALSE 
#>  2 2          3      0.543          0.977              4.08  FALSE 
#>  3 3          2      0.287          0.377              2.23  FALSE 
#>  4 4         14      0.298          3.73               2.31  TRUE  
#>  5 5         17      0.669          4.11               4.88  TRUE  
#>  6 6          4      0.0794         1.44               0.424 FALSE 
#>  7 7          1      0             -0.469             -0.358 FALSE 
#>  8 8         16      0.348          4.00               2.70  TRUE  
#>  9 9          2      0.0202         0.377             -0.153 FALSE 
#> 10 10         2      0.0202         0.377             -0.153 FALSE 
#> # ℹ 90 more rows
…
#> $plot
#> 
#> $method
#> [1] "Bottlenecks identified by method: zscore with Degree metric threshold = -1 and Betweenness metric threshold = 1"
#> 
#> $result
#> # A tibble: 100 × 6
#>    node  degree betweenness degree_metric betweenness_metric is_bottleneck
#>    <chr>  <dbl>       <dbl>         <dbl>              <dbl> <lgl>        
#>  1 1          7      0.662          2.42               4.84  FALSE        
#>  2 2          3      0.543          0.977              4.08  FALSE        
#>  3 3          2      0.287          0.377              2.23  FALSE        
#>  4 4         14      0.298          3.73               2.31  FALSE        
#>  5 5         17      0.669          4.11               4.88  FALSE        
#>  6 6          4      0.0794         1.44               0.424 FALSE        
#>  7 7          1      0             -0.469             -0.358 FALSE        
#>  8 8         16      0.348          4.00               2.70  FALSE        
#>  9 9          2      0.0202         0.377             -0.153 FALSE        
#> 10 10         2      0.0202         0.377             -0.153 FALSE        
#> # ℹ 90 more rows
…
#> 
#> $roles_definitions
#>   Name                Description                       Condition
#> 1   R1 Ultra-peripheral (non-hub)             z < 2.5 & P <= 0.05
#> 2   R2       Peripheral (non-hub)   z < 2.5 & 0.05 < P & P <= 0.6
#> 3   R3          Non-hub connector    z < 2.5 & 0.6 < P & P <= 0.8
#> 4   R4            Non-hub kinless               z < 2.5 & P > 0.8
#> 5   R5             Provincial hub            z >= 2.5 & P <= 0.25
#> 6   R6              Connector hub z >= 2.5 & 0.25 < P & P <= 0.75
#> 7   R7                Kinless hub             z >= 2.5 & P > 0.75
#> 
#> $result
#> # A tibble: 98 × 6
#>    node  module       z     p role  stringsAsFactors
#>    <chr>  <int>   <dbl> <dbl> <chr> <lgl>           
#>  1 1          7  2.72   0.245 R5    FALSE           
#>  2 2          7  0.118  0.444 R2    FALSE           
#>  3 3          7 -0.532  0.5   R2    FALSE           
#>  4 4          1  3.60   0.133 R5    FALSE           
#>  5 5          8  3.33   0.484 R6    FALSE           
#>  6 6          3  1.57   0.375 R2    FALSE           
#>  7 7          3 -0.671  0     R1    FALSE           
#>  8 8          4  3.86   0.227 R5    FALSE           
#>  9 9          1  0.0431 0     R1    FALSE           
#> 10 10         4  0.0375 0     R1    FALSE           
#> # ℹ 88 more rows
…
#> $module_table
#> # A tibble: 100 × 2
#>    node  module
#>    <chr>  <int>
#>  1 1          1
#>  2 2          1
#>  3 3          1
#>  4 4          2
#>  5 5          3
#>  6 6          4
#>  7 7          4
#>  8 8          5
#>  9 9          2
#> 10 10         5
#> # ℹ 90 more rows
…
These tools are useful for identifying nodes most impacted by a set
of sources, such as disease genes, drug targets, or signaling
proteins.

# Diffusion analysis
# Select random genes as seed nodes
seed_nodes <- sample(vertex_attr(g, "name"), 5)

network_diffusion(g, seed_nodes = seed_nodes, method = "laplacian")
#> # A tibble: 100 × 2
#>    node   score
#>    <chr>  <dbl>
#>  1 44    0.865 
#>  2 79    0.865 
#>  3 87    0.850 
#>  4 25    0.677 
#>  5 41    0.647 
#>  6 26    0.224 
#>  7 86    0.214 
#>  8 8     0.0939
#>  9 6     0.0867
#> 10 4     0.0510
#> # ℹ 90 more rows

network_diffusion_with_pvalues(g, seed_nodes = seed_nodes, method = "laplacian")
#> Running 1000 permutations with 5 random seed nodes each (parallelized)...
#> # A tibble: 100 × 4
#>    node   score p_empirical stringsAsFactors
#>    <chr>  <dbl>       <dbl> <lgl>           
#>  1 44    0.865     0.000999 FALSE           
#>  2 79    0.865     0.000999 FALSE           
#>  3 87    0.850     0.000999 FALSE           
#>  4 25    0.677     0.000999 FALSE           
#>  5 41    0.647     0.000999 FALSE           
#>  6 26    0.224     0.000999 FALSE           
#>  7 86    0.214     0.000999 FALSE           
#>  8 6     0.0867    0.000999 FALSE           
#>  9 12    0.0423    0.000999 FALSE           
#> 10 7     0.0225    0.000999 FALSE           
#> # ℹ 90 more rows
…
